Glasgow LEZ step by step source code
…
For traffic data, we load the traffic csv. To access the original traffic dataset please visit the Raw Data/Raw data SCOOT 2022/2023 folders (originally created by Li et al. (2024)). We chose the study period August 1st to September 30th in both 2022 and 2023.

For more information about traffic, please refer to the UBDC webpage https://www.ubdc.ac.uk/news/new-high-resolution-traffic-flow-dataset-available-from-ubdc.

traffic_raw <- read_csv("traffic.csv")

traffic_raw |> 
  filter(dt_date >= "2022-08-01" & dt_date <= "2022-09-30") |> 
  mutate(dt_year = as.factor(dt_year)) |> 
  select(siteId, dt_date, dt_year, week_group, total_flow) |> 
  arrange(dt_date) -> traffic_22

traffic_22

# A tibble: 244 × 5
   siteId   dt_date    dt_year week_group     total_flow
   <chr>    <date>     <fct>   <chr>               <dbl>
 1 GA1571_Q 2022-08-01 2022    Other Weekdays       1018
 2 GA2401_D 2022-08-01 2022    Other Weekdays       1207
 3 GA5371_C 2022-08-01 2022    Other Weekdays       2477
 4 GG2001_S 2022-08-01 2022    Other Weekdays        567
 5 GA1571_Q 2022-08-02 2022    Core Weekdays        1033
 6 GA2401_D 2022-08-02 2022    Core Weekdays        1225
 7 GA5371_C 2022-08-02 2022    Core Weekdays        2546
 8 GG2001_S 2022-08-02 2022    Core Weekdays         634
 9 GA1571_Q 2022-08-03 2022    Core Weekdays        1073
10 GA2401_D 2022-08-03 2022    Core Weekdays        1338
# ℹ 234 more rows

traffic_raw |> 
  filter(dt_date >= "2023-08-01" & dt_date <= "2023-09-30") |> 
  mutate(dt_year = as.factor(dt_year)) |> 
  select(siteId, dt_date, dt_year, week_group, total_flow)  |> 
  arrange(dt_date) -> traffic_23

traffic_23

# A tibble: 244 × 5
   siteId   dt_date    dt_year week_group    total_flow
   <chr>    <date>     <fct>   <chr>              <dbl>
 1 GA1571_Q 2023-08-01 2023    Core Weekdays       1026
 2 GA2401_D 2023-08-01 2023    Core Weekdays       1362
 3 GA5371_C 2023-08-01 2023    Core Weekdays       2154
 4 GG2001_S 2023-08-01 2023    Core Weekdays        664
 5 GA1571_Q 2023-08-02 2023    Core Weekdays       1074
 6 GA2401_D 2023-08-02 2023    Core Weekdays       1525
 7 GA5371_C 2023-08-02 2023    Core Weekdays       2227
 8 GG2001_S 2023-08-02 2023    Core Weekdays        639
 9 GA1571_Q 2023-08-03 2023    Core Weekdays       1172
10 GA2401_D 2023-08-03 2023    Core Weekdays       1487
# ℹ 234 more rows

For NO2, we used the openair R package and downloaded Glasgow’s High Street (GHSR) and Hope Street (GLA4) for which the roadside data were available.

Given the dataset, we filtered the data to align with the traffic data, and converted the years to factors which is a plot-friendly format in R.

no2 <- read_csv("no2.csv")

no2 |> 
  filter(dt_date >= "2022-08-01" & dt_date <= "2022-09-30") |> 
  select(code, dt_date, week_group, no2_daily) |> 
  mutate(dt_year = as.factor(2022)) -> no2_22

no2_22

# A tibble: 183 × 5
   code  dt_date    week_group     no2_daily dt_year
   <chr> <date>     <chr>              <dbl> <fct>  
 1 GHSR  2022-08-01 Other Weekdays     11.8  2022   
 2 GHSR  2022-08-02 Core Weekdays       7.53 2022   
 3 GHSR  2022-08-03 Core Weekdays       4.49 2022   
 4 GHSR  2022-08-04 Core Weekdays      21.5  2022   
 5 GHSR  2022-08-05 Other Weekdays     21.3  2022   
 6 GHSR  2022-08-06 Weekends           10.3  2022   
 7 GHSR  2022-08-07 Weekends           11.1  2022   
 8 GHSR  2022-08-08 Other Weekdays     14.9  2022   
 9 GHSR  2022-08-09 Core Weekdays      17.7  2022   
10 GHSR  2022-08-10 Core Weekdays      21.4  2022   
# ℹ 173 more rows

no2 |> 
  filter(dt_date >= "2023-08-01" & dt_date <= "2023-09-30") |> 
  select(code, dt_date, week_group, no2_daily) |> 
  mutate(dt_year = as.factor(2023)) -> no2_23

no2_23

# A tibble: 183 × 5
   code  dt_date    week_group     no2_daily dt_year
   <chr> <date>     <chr>              <dbl> <fct>  
 1 GHSR  2023-08-01 Core Weekdays       12.3 2023   
 2 GHSR  2023-08-02 Core Weekdays       10.9 2023   
 3 GHSR  2023-08-03 Core Weekdays       22.0 2023   
 4 GHSR  2023-08-04 Other Weekdays      12.6 2023   
 5 GHSR  2023-08-05 Weekends            12.0 2023   
 6 GHSR  2023-08-06 Weekends            14.8 2023   
 7 GHSR  2023-08-07 Other Weekdays      11.5 2023   
 8 GHSR  2023-08-08 Core Weekdays       12.9 2023   
 9 GHSR  2023-08-09 Core Weekdays       15.6 2023   
10 GHSR  2023-08-10 Core Weekdays       14.8 2023   
# ℹ 173 more rows
…
For more information, please refer to this link.

For the normalising process, we used the gam() function and smoothed windspeed(ws), easterly & southerly wind directtions, temperature, and relative humidity.

no2_22 |> 
  filter(code == "GHSR") |> 
  full_join(traffic_22 |> filter(siteId == "GG2001_S"), by = c("dt_date", "dt_year", "week_group")) |> 
  full_join(weather_by_week, by = c("dt_date", "week_group")) |> 
  mutate(u_wind = ws * sin(wd * pi / 180),
         v_wind = ws * cos(wd * pi / 180))  -> df_highst_22

df_highst_22

# A tibble: 61 × 13
   code  dt_date    week_group   no2_daily dt_year siteId total_flow    ws    wd
   <chr> <date>     <chr>            <dbl> <fct>   <chr>       <dbl> <dbl> <dbl>
 1 GHSR  2022-08-01 Other Weekd…     11.8  2022    GG200…        567  1.68  260.
 2 GHSR  2022-08-02 Core Weekda…      7.53 2022    GG200…        634  5.39  271.
 3 GHSR  2022-08-03 Core Weekda…      4.49 2022    GG200…        649  4.03  271.
 4 GHSR  2022-08-04 Core Weekda…     21.5  2022    GG200…        650  1.94  267.
 5 GHSR  2022-08-05 Other Weekd…     21.3  2022    GG200…        772  1.51  270.
 6 GHSR  2022-08-06 Weekends         10.3  2022    GG200…        667  3.43  272.
 7 GHSR  2022-08-07 Weekends         11.1  2022    GG200…        559  3.44  270.
 8 GHSR  2022-08-08 Other Weekd…     14.9  2022    GG200…        565  2.18  272.
 9 GHSR  2022-08-09 Core Weekda…     17.7  2022    GG200…        639  1.56  271.
10 GHSR  2022-08-10 Core Weekda…     21.4  2022    GG200…        678  1.57  222.
# ℹ 51 more rows
# ℹ 4 more variables: hum <dbl>, temp <dbl>, u_wind <dbl>, v_wind <dbl>
…
Rank: 45/46
R-sq.(adj) =  0.738   Deviance explained = 79.7%
GCV = 15.536  Scale est. = 11.878    n = 61

df_highst_22$residuals <- residuals(gam_highst_22)
df_highst_22$no2_normalised <- df_highst_22$residuals + mean(df_highst_22$no2_daily) 
df_highst_22

# A tibble: 61 × 15
   code  dt_date    week_group   no2_daily dt_year siteId total_flow    ws    wd
   <chr> <date>     <chr>            <dbl> <fct>   <chr>       <dbl> <dbl> <dbl>
 1 GHSR  2022-08-01 Other Weekd…     11.8  2022    GG200…        567  1.68  260.
 2 GHSR  2022-08-02 Core Weekda…      7.53 2022    GG200…        634  5.39  271.
 3 GHSR  2022-08-03 Core Weekda…      4.49 2022    GG200…        649  4.03  271.
 4 GHSR  2022-08-04 Core Weekda…     21.5  2022    GG200…        650  1.94  267.
 5 GHSR  2022-08-05 Other Weekd…     21.3  2022    GG200…        772  1.51  270.
 6 GHSR  2022-08-06 Weekends         10.3  2022    GG200…        667  3.43  272.
 7 GHSR  2022-08-07 Weekends         11.1  2022    GG200…        559  3.44  270.
 8 GHSR  2022-08-08 Other Weekd…     14.9  2022    GG200…        565  2.18  272.
 9 GHSR  2022-08-09 Core Weekda…     17.7  2022    GG200…        639  1.56  271.
10 GHSR  2022-08-10 Core Weekda…     21.4  2022    GG200…        678  1.57  222.
# ℹ 51 more rows
# ℹ 6 more variables: hum <dbl>, temp <dbl>, u_wind <dbl>, v_wind <dbl>,
#   residuals <dbl>, no2_normalised <dbl>

# High St 2023
no2_23 |> 
  filter(code == "GHSR") |> 
  full_join(traffic_23 |> filter(siteId == "GG2001_S"), by = c("dt_date", "dt_year", "week_group")) |> 
  full_join(weather_by_week23, by = c("dt_date", "week_group")) |> 
  mutate(u_wind = ws * sin(wd * pi / 180),
         v_wind = ws * cos(wd * pi / 180)) -> df_highst_23

df_highst_23

# A tibble: 61 × 13
   code  dt_date    week_group   no2_daily dt_year siteId total_flow    ws    wd
   <chr> <date>     <chr>            <dbl> <fct>   <chr>       <dbl> <dbl> <dbl>
 1 GHSR  2023-08-01 Core Weekda…      12.3 2023    GG200…        664 1.02   140.
 2 GHSR  2023-08-02 Core Weekda…      10.9 2023    GG200…        639 1.30   105.
 3 GHSR  2023-08-03 Core Weekda…      22.0 2023    GG200…        623 1.26   266.
 4 GHSR  2023-08-04 Other Weekd…      12.6 2023    GG200…        828 1.09   262.
 5 GHSR  2023-08-05 Weekends          12.0 2023    GG200…        869 0.474  157.
 6 GHSR  2023-08-06 Weekends          14.8 2023    GG200…        576 0.886  243.
 7 GHSR  2023-08-07 Other Weekd…      11.5 2023    GG200…        567 2.11   274.
 8 GHSR  2023-08-08 Core Weekda…      12.9 2023    GG200…        610 1.87   267.
 9 GHSR  2023-08-09 Core Weekda…      15.6 2023    GG200…        479 1.66   260.
10 GHSR  2023-08-10 Core Weekda…      14.8 2023    GG200…        497 0.577  147.
# ℹ 51 more rows
# ℹ 4 more variables: hum <dbl>, temp <dbl>, u_wind <dbl>, v_wind <dbl>
…
R-sq.(adj) =  0.647   Deviance explained = 70.7%
GCV = 14.212  Scale est. = 11.591    n = 61

df_highst_23$residuals <- residuals(gam_highst_23)
df_highst_23$no2_normalised <- df_highst_23$residuals + mean(df_highst_23$no2_daily) 
df_highst_23

# A tibble: 61 × 15
   code  dt_date    week_group   no2_daily dt_year siteId total_flow    ws    wd
   <chr> <date>     <chr>            <dbl> <fct>   <chr>       <dbl> <dbl> <dbl>
 1 GHSR  2023-08-01 Core Weekda…      12.3 2023    GG200…        664 1.02   140.
 2 GHSR  2023-08-02 Core Weekda…      10.9 2023    GG200…        639 1.30   105.
 3 GHSR  2023-08-03 Core Weekda…      22.0 2023    GG200…        623 1.26   266.
 4 GHSR  2023-08-04 Other Weekd…      12.6 2023    GG200…        828 1.09   262.
 5 GHSR  2023-08-05 Weekends          12.0 2023    GG200…        869 0.474  157.
 6 GHSR  2023-08-06 Weekends          14.8 2023    GG200…        576 0.886  243.
 7 GHSR  2023-08-07 Other Weekd…      11.5 2023    GG200…        567 2.11   274.
 8 GHSR  2023-08-08 Core Weekda…      12.9 2023    GG200…        610 1.87   267.
 9 GHSR  2023-08-09 Core Weekda…      15.6 2023    GG200…        479 1.66   260.
10 GHSR  2023-08-10 Core Weekda…      14.8 2023    GG200…        497 0.577  147.
# ℹ 51 more rows
# ℹ 6 more variables: hum <dbl>, temp <dbl>, u_wind <dbl>, v_wind <dbl>,
#   residuals <dbl>, no2_normalised <dbl>
…
Hope Street

Same work applies for Hope Street too.

no2_22 |> 
  filter(code == "GLA4") |> 
  full_join(traffic_22 |> filter(siteId == "GA2401_D"), by = c("dt_date", "dt_year", "week_group")) |> 
  full_join(weather_by_week, by = c("dt_date", "week_group")) |> 
  mutate(u_wind = ws * sin(wd * pi / 180),
         v_wind = ws * cos(wd * pi / 180)) -> df_hopest22

df_hopest22

# A tibble: 61 × 13
   code  dt_date    week_group   no2_daily dt_year siteId total_flow    ws    wd
   <chr> <date>     <chr>            <dbl> <fct>   <chr>       <dbl> <dbl> <dbl>
 1 GLA4  2022-08-01 Other Weekd…      25.7 2022    GA240…       1207  1.68  260.
 2 GLA4  2022-08-02 Core Weekda…      11.3 2022    GA240…       1225  5.39  271.
 3 GLA4  2022-08-03 Core Weekda…      19.0 2022    GA240…       1338  4.03  271.
 4 GLA4  2022-08-04 Core Weekda…      26.3 2022    GA240…       1410  1.94  267.
 5 GLA4  2022-08-05 Other Weekd…      29.2 2022    GA240…       1605  1.51  270.
 6 GLA4  2022-08-06 Weekends          16.9 2022    GA240…       1828  3.43  272.
 7 GLA4  2022-08-07 Weekends          15.6 2022    GA240…       1431  3.44  270.
 8 GLA4  2022-08-08 Other Weekd…      27.7 2022    GA240…       1188  2.18  272.
 9 GLA4  2022-08-09 Core Weekda…      28.2 2022    GA240…       1292  1.56  271.
10 GLA4  2022-08-10 Core Weekda…      34.0 2022    GA240…       1249  1.57  222.
# ℹ 51 more rows
# ℹ 4 more variables: hum <dbl>, temp <dbl>, u_wind <dbl>, v_wind <dbl>
…
R-sq.(adj) =  0.859   Deviance explained = 88.4%
GCV = 25.765  Scale est. = 20.835    n = 61

df_hopest22$residuals <- residuals(gam_hopest_22)
df_hopest22$no2_normalised <- df_hopest22$residuals + mean(df_hopest22$no2_daily) 
df_hopest22

# A tibble: 61 × 15
   code  dt_date    week_group   no2_daily dt_year siteId total_flow    ws    wd
   <chr> <date>     <chr>            <dbl> <fct>   <chr>       <dbl> <dbl> <dbl>
 1 GLA4  2022-08-01 Other Weekd…      25.7 2022    GA240…       1207  1.68  260.
 2 GLA4  2022-08-02 Core Weekda…      11.3 2022    GA240…       1225  5.39  271.
 3 GLA4  2022-08-03 Core Weekda…      19.0 2022    GA240…       1338  4.03  271.
 4 GLA4  2022-08-04 Core Weekda…      26.3 2022    GA240…       1410  1.94  267.
 5 GLA4  2022-08-05 Other Weekd…      29.2 2022    GA240…       1605  1.51  270.
 6 GLA4  2022-08-06 Weekends          16.9 2022    GA240…       1828  3.43  272.
 7 GLA4  2022-08-07 Weekends          15.6 2022    GA240…       1431  3.44  270.
 8 GLA4  2022-08-08 Other Weekd…      27.7 2022    GA240…       1188  2.18  272.
 9 GLA4  2022-08-09 Core Weekda…      28.2 2022    GA240…       1292  1.56  271.
10 GLA4  2022-08-10 Core Weekda…      34.0 2022    GA240…       1249  1.57  222.
# ℹ 51 more rows
# ℹ 6 more variables: hum <dbl>, temp <dbl>, u_wind <dbl>, v_wind <dbl>,
#   residuals <dbl>, no2_normalised <dbl>

no2_23 |> 
  filter(code == "GLA4") |> 
  full_join(traffic_23 |> filter(siteId == "GA2401_D"), by = c("dt_date", "dt_year","week_group")) |> 
  full_join(weather_by_week23, by = c("dt_date", "week_group")) |> 
  mutate(u_wind = ws * sin(wd * pi / 180),
         v_wind = ws * cos(wd * pi / 180)) -> df_hopest23

df_hopest23

# A tibble: 61 × 13
   code  dt_date    week_group   no2_daily dt_year siteId total_flow    ws    wd
   <chr> <date>     <chr>            <dbl> <fct>   <chr>       <dbl> <dbl> <dbl>
 1 GLA4  2023-08-01 Core Weekda…      41.6 2023    GA240…       1362 1.02   140.
 2 GLA4  2023-08-02 Core Weekda…      46.7 2023    GA240…       1525 1.30   105.
 3 GLA4  2023-08-03 Core Weekda…      31.4 2023    GA240…       1487 1.26   266.
 4 GLA4  2023-08-04 Other Weekd…      32.6 2023    GA240…       1443 1.09   262.
 5 GLA4  2023-08-05 Weekends          38.9 2023    GA240…       1762 0.474  157.
 6 GLA4  2023-08-06 Weekends          32.9 2023    GA240…       1476 0.886  243.
 7 GLA4  2023-08-07 Other Weekd…      31.8 2023    GA240…       1425 2.11   274.
 8 GLA4  2023-08-08 Core Weekda…      30.9 2023    GA240…       1298 1.87   267.
 9 GLA4  2023-08-09 Core Weekda…      33.1 2023    GA240…       1443 1.66   260.
10 GLA4  2023-08-10 Core Weekda…      41.9 2023    GA240…       1398 0.577  147.
# ℹ 51 more rows
# ℹ 4 more variables: hum <dbl>, temp <dbl>, u_wind <dbl>, v_wind <dbl>
…
R-sq.(adj) =  0.861   Deviance explained = 89.1%
GCV = 24.088  Scale est. = 18.624    n = 61

df_hopest23$residuals <- residuals(gam_hopest_23)
df_hopest23$no2_normalised <- df_hopest23$residuals + mean(df_hopest23$no2_daily) 
df_hopest23

# A tibble: 61 × 15
   code  dt_date    week_group   no2_daily dt_year siteId total_flow    ws    wd
   <chr> <date>     <chr>            <dbl> <fct>   <chr>       <dbl> <dbl> <dbl>
 1 GLA4  2023-08-01 Core Weekda…      41.6 2023    GA240…       1362 1.02   140.
 2 GLA4  2023-08-02 Core Weekda…      46.7 2023    GA240…       1525 1.30   105.
 3 GLA4  2023-08-03 Core Weekda…      31.4 2023    GA240…       1487 1.26   266.
 4 GLA4  2023-08-04 Other Weekd…      32.6 2023    GA240…       1443 1.09   262.
 5 GLA4  2023-08-05 Weekends          38.9 2023    GA240…       1762 0.474  157.
 6 GLA4  2023-08-06 Weekends          32.9 2023    GA240…       1476 0.886  243.
 7 GLA4  2023-08-07 Other Weekd…      31.8 2023    GA240…       1425 2.11   274.
 8 GLA4  2023-08-08 Core Weekda…      30.9 2023    GA240…       1298 1.87   267.
 9 GLA4  2023-08-09 Core Weekda…      33.1 2023    GA240…       1443 1.66   260.
10 GLA4  2023-08-10 Core Weekda…      41.9 2023    GA240…       1398 0.577  147.
# ℹ 51 more rows
# ℹ 6 more variables: hum <dbl>, temp <dbl>, u_wind <dbl>, v_wind <dbl>,
#   residuals <dbl>, no2_normalised <dbl>
…
